{
    "Example": {
        "URLsSections": [
            {
                "title": "Инструкции",
                "urls": [
                    {
                        "title": "Инструкция администратора",
                        "url": "/instructions/%D0%98%D0%BD%D1%81%D1%82%D1%80%D1%83%D0%BA%D1%86%D0%B8%D1%8F%20%D0%B0%D0%B4%D0%BC%D0%B8%D0%BD%D0%B8%D1%81%D1%82%D1%80%D0%B0%D1%82%D0%BE%D1%80%D0%B0.docx"
                    },
                    {
                        "title": "Инструкция модератора",
                        "url": "/instructions/%D0%98%D0%BD%D1%81%D1%82%D1%80%D1%83%D0%BA%D1%86%D0%B8%D1%8F%20%D0%BC%D0%BE%D0%B4%D0%B5%D1%80%D0%B0%D1%82%D0%BE%D1%80%D0%B0.docx"
                    },
                    {
                        "title": "Инструкция пользователя системы \"Дело\"",
                        "url": "/instructions/%D0%98%D0%BD%D1%81%D1%82%D1%80%D1%83%D0%BA%D1%86%D0%B8%D1%8F_%D0%BF%D0%BE%D0%BB%D1%8C%D0%B7%D0%BE%D0%B2%D0%B0%D1%82%D0%B5%D0%BB%D1%8F_%D0%94%D0%B5%D0%BB%D0%BE_%D0%BF%D0%BE_%D1%80%D0%B0%D0%B1%D0%BE%D1%82%D0%B5.docx"
                    },
                    {
                        "title": "Инструкция пользователя ЛК",
                        "url": "/instructions/%D0%98%D0%BD%D1%81%D1%82%D1%80%D1%83%D0%BA%D1%86%D0%B8%D1%8F_%D0%BF%D0%BE%D0%BB%D1%8C%D0%B7%D0%BE%D0%B2%D0%B0%D1%82%D0%B5%D0%BB%D1%8F_%D0%9B%D0%9A_%D0%9F%D0%BE%D1%80%D1%82%D0%B0%D0%BB%D0%B0.docx"
                    }
                ]
            }
        ],
        "Citizens": {
            "rem": "viewListWith Territory",
            "viewList": [
                "deleted",
                "id",
                "siteStatus",
                "createdAt",
                "publicGranted",
                "territoryId",
                "rubricId",
                "extDate",
                "extNumber",
                "authorName"
            ],
            "filterList": [
                [ "deleted", "siteStatus" ],
                [ "id", "createdAt" ],
                [ "territoryId", "rubricId" ],
                "author.fullName",
                [ "extNumber", "extDate"]
            ],
            "editList": [
                {
                    "title": "Основные",
                    "fields" : [
                        ["siteStatus", "rubricId" ],
                        ["topicId", "territoryId" ],
                        ["extNumber", "extDate" ],
                        ["createdAt", ""],
                        ["publicGranted", ""],
                        "description",
                        "attachedFilesIds",
                        "approved",
                        "rejResVariants",
                        "rejectionReason",
                        "OldSystemId"
                    ]
                }, {
                    "title": "Контактная информация",
                    "fields" : [
                        ["phone", "email"]
                    ]
                }, {
                    "title": "Журнал",
                    "fields": []
                }, {
                    "title": "Ответы",
                    "fields": []
                }
            ]
        }
    }
}
